Fundamentals of Biological Data Analysis - 6 Hypothesis testing
…
dt <- read_csv("data/medals.csv")

Rows: 6915 Columns: 5
── Column specification ────────────────────────────────────────────────────────
Delimiter: ","
chr (2): NOC, Sport
dbl (3): Year, F, M

ℹ Use `spec()` to retrieve the full column specification for this data.
ℹ Specify the column types or set `show_col_types = FALSE` to quiet this message.

dt

# A tibble: 6,915 × 5
   NOC    Year Sport         F     M
   <chr> <dbl> <chr>     <dbl> <dbl>
 1 AFG    2008 Taekwondo     0     1
 2 AFG    2012 Taekwondo     0     1
 3 AHO    1988 Sailing       0     1
 4 ALG    1984 Boxing        0     2
 5 ALG    1992 Athletics     1     0
 6 ALG    1992 Boxing        0     1
 7 ALG    1996 Athletics     0     1
 8 ALG    1996 Boxing        0     2
 9 ALG    2000 Athletics     1     3
10 ALG    2000 Boxing        0     1
# ℹ 6,905 more rows
…
