Lecture 4 Data wrangling | Fundamentals of Biological Data Analysis
…
head(dt) shows the first few rows

tail(dt) shows the last few rows

glimpse(dt) a summary of the data (similar to str in base R)

View(dt) open in spreadsheet-like window

4.4 Selecting rows and columns

There are many ways to subset the data, either by row (subsetting the observations), or by column (subsetting the variables). For example, let’s select only the rows with observations from the island Torgersen:

filter(penguins, island == "Torgersen")

## # A tibble: 52 x 8
##    species island bill_length_mm bill_depth_mm flipper_length_… body_mass_g
##    <fct>   <fct>           <dbl>         <dbl>            <int>       <int>
##  1 Adelie  Torge…           39.1          18.7              181        3750
##  2 Adelie  Torge…           39.5          17.4              186        3800
##  3 Adelie  Torge…           40.3          18                195        3250
##  4 Adelie  Torge…           NA            NA                 NA          NA
##  5 Adelie  Torge…           36.7          19.3              193        3450
##  6 Adelie  Torge…           39.3          20.6              190        3650
##  7 Adelie  Torge…           38.9          17.8              181        3625
##  8 Adelie  Torge…           39.2          19.6              195        4675
##  9 Adelie  Torge…           34.1          18.1              193        3475
## 10 Adelie  Torge…           42            20.2              190        4250
## # … with 42 more rows, and 2 more variables: sex <fct>, year <int>

We have 52 observations. We have used the command filter(tbl, conditions) to select certain observations. We can combine several conditions, by listing them side by side, possibly using logical operators.

Exercise: what does this do?
filter(penguins,  bill_length_mm > 40,  bill_depth_mm > 20, sex == male)

We can also select particular variables (columns) using the function select(tbl, cols to select). For example, select species and island:

select(penguins, species, island)

## # A tibble: 344 x 2
##    species island   
##    <fct>   <fct>    
##  1 Adelie  Torgersen
##  2 Adelie  Torgersen
##  3 Adelie  Torgersen
##  4 Adelie  Torgersen
##  5 Adelie  Torgersen
##  6 Adelie  Torgersen
##  7 Adelie  Torgersen
##  8 Adelie  Torgersen
##  9 Adelie  Torgersen
## 10 Adelie  Torgersen
## # … with 334 more rows
…
showing that male penguins are heavier for the three species considered.

Exercise: find the average bill_depth_mm and bill_length_mm by species and sex. Filter the data to consider only observations for the year 2008.

4.8 Ordering the data

To order the data according to one or more variables, use arrange():

penguins %>% 
  arrange(body_mass_g) # ascending

## # A tibble: 344 x 8
##    species island bill_length_mm bill_depth_mm flipper_length_… body_mass_g
##    <fct>   <fct>           <dbl>         <dbl>            <int>       <int>
##  1 Chinst… Dream            46.9          16.6              192        2700
##  2 Adelie  Biscoe           36.5          16.6              181        2850
##  3 Adelie  Biscoe           36.4          17.1              184        2850
##  4 Adelie  Biscoe           34.5          18.1              187        2900
##  5 Adelie  Dream            33.1          16.1              178        2900
##  6 Adelie  Torge…           38.6          17                188        2900
##  7 Chinst… Dream            43.2          16.6              187        2900
##  8 Adelie  Biscoe           37.9          18.6              193        2925
##  9 Adelie  Dream            37.5          18.9              179        2975
## 10 Adelie  Dream            37            16.9              185        3000
## # … with 334 more rows, and 2 more variables: sex <fct>, year <int>

penguins %>% 
  arrange(desc(body_mass_g)) # descending

## # A tibble: 344 x 8
##    species island bill_length_mm bill_depth_mm flipper_length_… body_mass_g
##    <fct>   <fct>           <dbl>         <dbl>            <int>       <int>
##  1 Gentoo  Biscoe           49.2          15.2              221        6300
##  2 Gentoo  Biscoe           59.6          17                230        6050
##  3 Gentoo  Biscoe           51.1          16.3              220        6000
##  4 Gentoo  Biscoe           48.8          16.2              222        6000
##  5 Gentoo  Biscoe           45.2          16.4              223        5950
##  6 Gentoo  Biscoe           49.8          15.9              229        5950
##  7 Gentoo  Biscoe           48.4          14.6              213        5850
##  8 Gentoo  Biscoe           49.3          15.7              217        5850
##  9 Gentoo  Biscoe           55.1          16                230        5850
## 10 Gentoo  Biscoe           49.5          16.2              229        5800
## # … with 334 more rows, and 2 more variables: sex <fct>, year <int>

4.9 Renaming columns

To rename one or more columns, use rename():

penguins %>% 
  rename(bm = body_mass_g)

## # A tibble: 344 x 8
##    species island bill_length_mm bill_depth_mm flipper_length_…    bm sex  
##    <fct>   <fct>           <dbl>         <dbl>            <int> <int> <fct>
##  1 Adelie  Torge…           39.1          18.7              181  3750 male 
##  2 Adelie  Torge…           39.5          17.4              186  3800 fema…
##  3 Adelie  Torge…           40.3          18                195  3250 fema…
##  4 Adelie  Torge…           NA            NA                 NA    NA <NA> 
##  5 Adelie  Torge…           36.7          19.3              193  3450 fema…
##  6 Adelie  Torge…           39.3          20.6              190  3650 male 
##  7 Adelie  Torge…           38.9          17.8              181  3625 fema…
##  8 Adelie  Torge…           39.2          19.6              195  4675 male 
##  9 Adelie  Torge…           34.1          18.1              193  3475 <NA> 
## 10 Adelie  Torge…           42            20.2              190  4250 <NA> 
## # … with 334 more rows, and 1 more variable: year <int>

4.10 Adding new variables using mutate

If you want to add one or more new columns, with the content being a function of other columns, use the function mutate. For example, we are going to add a new column showing the z-score for the body mass of each individual:

penguins %>% 
  mutate(zscore_bm = scale(body_mass_g)) %>% 
  select(species, sex, body_mass_g, zscore_bm)

## # A tibble: 344 x 4
##    species sex    body_mass_g zscore_bm[,1]
##    <fct>   <fct>        <int>         <dbl>
##  1 Adelie  male          3750       -0.563 
##  2 Adelie  female        3800       -0.501 
##  3 Adelie  female        3250       -1.19  
##  4 Adelie  <NA>            NA       NA     
##  5 Adelie  female        3450       -0.937 
##  6 Adelie  male          3650       -0.688 
##  7 Adelie  female        3625       -0.719 
##  8 Adelie  male          4675        0.590 
##  9 Adelie  <NA>          3475       -0.906 
## 10 Adelie  <NA>          4250        0.0602
## # … with 334 more rows
…
You can use the function transmute() to create a new column and drop the original columns.

Most importantly, you can use mutate and transmute on grouped data. For example, let’s recompute the z-score of the body_mass_g once the data is grouped by species and sex:

penguins %>% 
  drop_na() %>% 
  select(species, sex, body_mass_g) %>% 
  group_by(species, sex) %>% 
  mutate(zscore_bm = scale(body_mass_g)) %>% 
  arrange(body_mass_g)

## # A tibble: 333 x 4
## # Groups:   species, sex [6]
##    species   sex    body_mass_g zscore_bm
##    <fct>     <fct>        <int>     <dbl>
##  1 Chinstrap female        2700     -2.90
##  2 Adelie    female        2850     -1.93
##  3 Adelie    female        2850     -1.93
##  4 Adelie    female        2900     -1.74
##  5 Adelie    female        2900     -1.74
##  6 Adelie    female        2900     -1.74
##  7 Chinstrap female        2900     -2.20
##  8 Adelie    female        2925     -1.65
##  9 Adelie    female        3000     -1.37
## 10 Adelie    female        3000     -1.37
## # … with 323 more rows
