Lecture 9 How to fool yourself with p-hacking (and possibly get fired!) | Fundamentals of Biological Data Analysis
…
library(tidyverse)
dt <- read_csv("data/medals.csv")

## Parsed with column specification:
## cols(
##   NOC = col_character(),
##   Year = col_double(),
##   Sport = col_character(),
##   F = col_double(),
##   M = col_double()
## )

dt

## # A tibble: 6,915 x 5
##    NOC    Year Sport         F     M
##    <chr> <dbl> <chr>     <dbl> <dbl>
##  1 AFG    2008 Taekwondo     0     1
##  2 AFG    2012 Taekwondo     0     1
##  3 AHO    1988 Sailing       0     1
##  4 ALG    1984 Boxing        0     2
##  5 ALG    1992 Athletics     1     0
##  6 ALG    1992 Boxing        0     1
##  7 ALG    1996 Athletics     0     1
##  8 ALG    1996 Boxing        0     2
##  9 ALG    2000 Athletics     1     3
## 10 ALG    2000 Boxing        0     1
## # … with 6,905 more rows
…
