Lecture 8 Linear models | Fundamentals of Biological Data Analysis
…
# read the data
# Original URL
dt <- read_csv("https://raw.githubusercontent.com/dailybruin/uc-salaries/master/data/uc_salaries.csv", 
               col_names = c("first_name", "last_name", "title", "a", "pay", "loc", "year", "b", "c", "d")) %>% 
      select(first_name, last_name, title, loc, pay)
# get only profs
dt <- dt %>% filter(title %in% c("PROF-AY", "ASSOC PROF-AY", "ASST PROF-AY", 
                                 "PROF-AY-B/E/E", "PROF-HCOMP", "ASST PROF-AY-B/E/E", 
                                 "ASSOC PROF-AY-B/E/E", "ASSOC PROF-HCOMP", "ASST PROF-HCOMP"))
# remove those making less than 30k (probably there only for a period)
dt <- dt %>% filter(pay > 30000)
dt

## # A tibble: 4,915 x 5
##    first_name       last_name     title           loc               pay
##    <chr>            <chr>         <chr>           <chr>           <dbl>
##  1 CHRISTOPHER U    ABANI         PROF-AY         Riverside     151200 
##  2 HENRY DON ISAAC  ABARBANEL     PROF-AY         San Diego     160450.
##  3 ADAM R           ABATE         ASST PROF-HCOMP San Francisco  85305.
##  4 KEVORK N.        ABAZAJIAN     ASST PROF-AY    Irvine         82400.
##  5 M. ACKBAR        ABBAS         PROF-AY         Irvine        168700.
##  6 ABUL K           ABBAS         PROF-HCOMP      San Francisco 286824.
##  7 LEONARD J        ABBEDUTO      PROF-HCOMP      Davis         200385.
##  8 DON P            ABBOTT        PROF-AY         Davis         106400.
##  9 GEOFFREY WINSTON ABBOTT        PROF-HCOMP      Irvine        125001.
## 10 KHALED A.S.      ABDEL-GHAFFAR PROF-AY-B/E/E   Davis         120100.
## # … with 4,905 more rows
…
